mandant,ktonr,kurzcode,name1,name2,Ansprechpartner,strasse,intkz,plz,ort,telefon,Mobil,email,kunde_seit,Vertreter
AUSTRIA,12070,KONT_1,Kontakt 1,"Kontakt Name 1","Ansprechpartner 1","Strasse 1",AT,6330,ORT 1,"23 40443","4433334","email1@email.at",2014-04-16,"112233"
AUSTRIA,19018,KONT_2,Kontakt 2,"Kontakt Name 2","Ansprechpartner 2","Strasse 2",AT,6330,ORT 2,"23 40443","4433334","email1@email.at",2014-04-16,"112233"
AUSTRIA,230000,KONT_3,Kontakt 3,"Kontakt Name 3","Ansprechpartner 3","Strasse 3",AT,6330,ORT 3,"23 40443","4433334","email1@email.at",2014-04-16,"112233"
AUSTRIA,230001,KONT_4,Kontakt 4,"Kontakt Name 4","Ansprechpartner 4","Strasse 4",AT,6330,ORT 4,"23 40443","4433334","email1@email.at",2014-04-16,"112233"
AUSTRIA,230002,KONT_5,Kontakt 5,"Kontakt Name 5","Ansprechpartner 5","Strasse 5",AT,6330,ORT 5,"23 40443","4433334","email1@email.at",2014-04-16,"112233"
AUSTRIA,230003,KONT_6,Kontakt 6,"Kontakt Name 6","Ansprechpartner 6","Strasse 6",AT,6330,ORT 6,"23 40443","4433334","email1@email.at",2014-04-16,"112233"
AUSTRIA,230004,KONT_7,Kontakt 7,"Kontakt Name 7","Ansprechpartner 7","Strasse 7",AT,6330,ORT 7,"23 40443","4433334","email1@email.at",2014-04-16,"112233"
AUSTRIA,230005,KONT_8,Kontakt 8,"Kontakt Name 8","Ansprechpartner 8","Strasse 8",AT,6330,ORT 8,"23 40443","4433334","email1@email.at",2014-04-16,"112233"
AUSTRIA,230006,KONT_9,Kontakt 9,"Kontakt Name 9","Ansprechpartner 9","Strasse 9",AT,6330,ORT 9,"23 40443","4433334","email1@email.at",2014-04-16,"112233"
AUSTRIA,230007,KONT_10,Kontakt 10,"Kontakt Name 10","Ansprechpartner 10","Strasse 10",AT,6330,ORT 10,"23 40443","4433334","email1@email.at",2014-04-16,"112233"
AUSTRIA,230008,KONT_11,Kontakt 11,"Kontakt Name 11","Ansprechpartner 11","Strasse 11",AT,6330,ORT 11,"23 40443","4433334","email1@email.at",2014-04-16,"112233"
AUSTRIA,230009,KONT_12,Kontakt 12,"Kontakt Name 12","Ansprechpartner 12","Strasse 12",AT,6330,ORT 12,"23 40443","4433334","email1@email.at",2014-04-16,"112233"
AUSTRIA,230071,KONT_13,Kontakt 13,"Kontakt Name 13","Ansprechpartner 13,"Strasse 13",AT,6330,ORT 13,"23 40443","4433334","email1@email.at",2014-04-16,"112233"

